{
    "/backend/hcms.js": "/backend/hcms.js",
    "/backend/hcms.css": "/backend/hcms.css",
    "/frontend/ExampleDevProject.css": "/frontend/ExampleDevProject.css",
    "/backend/hcms-vendor.js": "/backend/hcms-vendor.js",
    "/frontend/ExampleDevProject.js": "/frontend/ExampleDevProject.js",
    "/frontend/ExampleDevProject-vendor.js": "/frontend/ExampleDevProject-vendor.js"
}
